<?xml version="1.0" encoding="UTF-8" standalone="no"?>
<!DOCTYPE svg PUBLIC "-//W3C//DTD SVG 1.1//EN"
 "http://www.w3.org/Graphics/SVG/1.1/DTD/svg11.dtd">
<!-- Generated by graphviz version 8.1.0 (20230707.0739)
 -->
<!-- Title: A Pages: 1 -->
<svg width="991pt" height="443pt"
 viewBox="0.00 0.00 991.00 443.00" xmlns="http://www.w3.org/2000/svg" xmlns:xlink="http://www.w3.org/1999/xlink">
<g id="graph0" class="graph" transform="scale(1 1) rotate(0) translate(4 439)">
<title>A</title>
<polygon fill="#f3f4f6" stroke="none" points="-4,4 -4,-439 987,-439 987,4 -4,4"/>
<g id="clust1" class="cluster">
<title>cluster_a</title>
<polygon fill="#f3f4f6" stroke="#f3f4f6" points="8,-8 8,-427 266,-427 266,-8 8,-8"/>
</g>
<g id="clust2" class="cluster">
<title>cluster_c</title>
<polygon fill="#f3f4f6" stroke="#f3f4f6" points="274,-117.75 274,-427 534,-427 534,-117.75 274,-117.75"/>
</g>
<g id="clust3" class="cluster">
<title>cluster_b</title>
<polygon fill="#f3f4f6" stroke="#f3f4f6" points="542,-8 542,-427 975,-427 975,-8 542,-8"/>
</g>
<!-- start -->
<g id="node1" class="node">
<title>start</title>
<polygon fill="#ffffff" stroke="#bbbbbb" points="229,-419 27,-419 27,-383 229,-383 229,-419"/>
<text text-anchor="middle" x="128" y="-396.32" font-family="Lato" font-size="14.00"> Lifecycle of first Contribution </text>
</g>
<!-- statusPending -->
<g id="node2" class="node">
<title>statusPending</title>
<polygon fill="#fbfbfb" stroke="#0284ea" points="160.75,-309.25 95.25,-309.25 95.25,-273.25 160.75,-273.25 160.75,-309.25"/>
<text text-anchor="middle" x="128" y="-286.57" font-family="Lato" font-size="14.00" fill="#0284ea">Pending</text>
</g>
<!-- start&#45;&gt;statusPending -->
<g id="edge1" class="edge">
<title>start&#45;&gt;statusPending</title>
<path fill="none" stroke="#22b022" d="M128,-382.69C128,-365.88 128,-340.08 128,-320.33"/>
<polygon fill="#22b022" stroke="#22b022" points="131.5,-320.52 128,-310.52 124.5,-320.52 131.5,-320.52"/>
<text text-anchor="middle" x="176.75" y="-343.07" font-family="Lato" font-size="14.00" fill="#22b022">User starts flow</text>
</g>
<!-- statusComplete -->
<g id="node3" class="node">
<title>statusComplete</title>
<polygon fill="#fbfbfb" stroke="#0284ea" points="92,-161.75 16,-161.75 16,-125.75 92,-125.75 92,-161.75"/>
<text text-anchor="middle" x="54" y="-139.07" font-family="Lato" font-size="14.00" fill="#0284ea">Complete</text>
</g>
<!-- statusPending&#45;&gt;statusComplete -->
<g id="edge2" class="edge">
<title>statusPending&#45;&gt;statusComplete</title>
<path fill="none" stroke="#22b022" d="M95.07,-281.91C79.69,-276.19 62.81,-266.86 53.75,-252 39.26,-228.23 41.78,-195.64 46.38,-172.64"/>
<polygon fill="#22b022" stroke="#22b022" points="49.95,-173.72 48.75,-163.2 43.13,-172.18 49.95,-173.72"/>
<text text-anchor="start" x="53" y="-221.45" font-family="Lato" font-size="14.00" fill="#22b022">Payment</text>
<text text-anchor="middle" x="85.62" y="-204.2" font-family="Lato" font-size="14.00" fill="#22b022">Confirmed</text>
</g>
<!-- statusCancelled -->
<g id="node4" class="node">
<title>statusCancelled</title>
<polygon fill="#fbfbfb" stroke="#0284ea" points="186.38,-161.75 109.62,-161.75 109.62,-125.75 186.38,-125.75 186.38,-161.75"/>
<text text-anchor="middle" x="148" y="-139.07" font-family="Lato" font-size="14.00" fill="#0284ea">Cancelled</text>
</g>
<!-- statusPending&#45;&gt;statusCancelled -->
<g id="edge4" class="edge">
<title>statusPending&#45;&gt;statusCancelled</title>
<path fill="none" stroke="#b02222" d="M125.8,-272.87C123.63,-251.42 121.58,-213.96 129,-183 129.89,-179.28 131.19,-175.51 132.71,-171.86"/>
<polygon fill="#b02222" stroke="#b02222" points="136.25,-173.55 137.36,-163.02 129.92,-170.56 136.25,-173.55"/>
<text text-anchor="start" x="129" y="-238.7" font-family="Lato" font-size="14.00" fill="#b02222">Cancelled</text>
<text text-anchor="start" x="129" y="-221.45" font-family="Lato" font-size="14.00" fill="#b02222">or</text>
<text text-anchor="start" x="129" y="-204.2" font-family="Lato" font-size="14.00" fill="#b02222">Abandoned</text>
<text text-anchor="middle" x="163.5" y="-186.95" font-family="Lato" font-size="14.00" fill="#b02222">mandate</text>
</g>
<!-- statusFailed -->
<g id="node5" class="node">
<title>statusFailed</title>
<polygon fill="#fbfbfb" stroke="#0284ea" points="258,-161.75 204,-161.75 204,-125.75 258,-125.75 258,-161.75"/>
<text text-anchor="middle" x="231" y="-139.07" font-family="Lato" font-size="14.00" fill="#0284ea">Failed</text>
</g>
<!-- statusPending&#45;&gt;statusFailed -->
<g id="edge5" class="edge">
<title>statusPending&#45;&gt;statusFailed</title>
<path fill="none" stroke="#b02222" d="M160.93,-278.63C174.09,-272.52 188.37,-263.8 198,-252 216.53,-229.3 224.67,-196.26 228.24,-172.86"/>
<polygon fill="#b02222" stroke="#b02222" points="231.81,-173.61 229.65,-163.23 224.87,-172.69 231.81,-173.61"/>
<text text-anchor="middle" x="244.75" y="-212.82" font-family="Lato" font-size="14.00" fill="#b02222">Failed</text>
</g>
<!-- statusRefunded -->
<g id="node6" class="node">
<title>statusRefunded</title>
<polygon fill="#fbfbfb" stroke="#0284ea" points="91.25,-52 16.75,-52 16.75,-16 91.25,-16 91.25,-52"/>
<text text-anchor="middle" x="54" y="-29.32" font-family="Lato" font-size="14.00" fill="#0284ea">Refunded</text>
</g>
<!-- statusComplete&#45;&gt;statusRefunded -->
<g id="edge3" class="edge">
<title>statusComplete&#45;&gt;statusRefunded</title>
<path fill="none" stroke="#b02222" d="M54,-125.44C54,-108.63 54,-82.83 54,-63.08"/>
<polygon fill="#b02222" stroke="#b02222" points="57.5,-63.27 54,-53.27 50.5,-63.27 57.5,-63.27"/>
<text text-anchor="start" x="54" y="-91.2" font-family="Lato" font-size="14.00" fill="#b02222">Late</text>
<text text-anchor="middle" x="75.75" y="-73.95" font-family="Lato" font-size="14.00" fill="#b02222">Failure</text>
</g>
<!-- startNew -->
<g id="node7" class="node">
<title>startNew</title>
<polygon fill="#ffffff" stroke="#bbbbbb" points="515,-419 313,-419 313,-383 515,-383 515,-419"/>
<text text-anchor="middle" x="414" y="-396.32" font-family="Lato" font-size="14.00">Lifecycle of new Contributions</text>
</g>
<!-- statusNewComplete -->
<g id="node8" class="node">
<title>statusNewComplete</title>
<polygon fill="#fbfbfb" stroke="#0284ea" points="358,-309.25 282,-309.25 282,-273.25 358,-273.25 358,-309.25"/>
<text text-anchor="middle" x="320" y="-286.57" font-family="Lato" font-size="14.00" fill="#0284ea">Complete</text>
</g>
<!-- startNew&#45;&gt;statusNewComplete -->
<g id="edge6" class="edge">
<title>startNew&#45;&gt;statusNewComplete</title>
<path fill="none" stroke="#22b022" d="M367.25,-382.69C358.92,-377.96 350.93,-372.12 344.75,-365 333.87,-352.48 327.72,-334.97 324.27,-320.26"/>
<polygon fill="#22b022" stroke="#22b022" points="327.55,-319.79 322.13,-310.69 320.69,-321.18 327.55,-319.79"/>
<text text-anchor="middle" x="376.62" y="-343.07" font-family="Lato" font-size="14.00" fill="#22b022">Confirmed</text>
</g>
<!-- statusNewCancelled -->
<g id="node9" class="node">
<title>statusNewCancelled</title>
<polygon fill="#fbfbfb" stroke="#0284ea" points="452.38,-309.25 375.62,-309.25 375.62,-273.25 452.38,-273.25 452.38,-309.25"/>
<text text-anchor="middle" x="414" y="-286.57" font-family="Lato" font-size="14.00" fill="#0284ea">Cancelled</text>
</g>
<!-- startNew&#45;&gt;statusNewCancelled -->
<g id="edge8" class="edge">
<title>startNew&#45;&gt;statusNewCancelled</title>
<path fill="none" stroke="#b02222" d="M414,-382.69C414,-365.88 414,-340.08 414,-320.33"/>
<polygon fill="#b02222" stroke="#b02222" points="417.5,-320.52 414,-310.52 410.5,-320.52 417.5,-320.52"/>
<text text-anchor="middle" x="444.38" y="-343.07" font-family="Lato" font-size="14.00" fill="#b02222">Cancelled</text>
</g>
<!-- statusNewFailed -->
<g id="node10" class="node">
<title>statusNewFailed</title>
<polygon fill="#fbfbfb" stroke="#0284ea" points="473,-161.75 419,-161.75 419,-125.75 473,-125.75 473,-161.75"/>
<text text-anchor="middle" x="446" y="-139.07" font-family="Lato" font-size="14.00" fill="#0284ea">Failed</text>
</g>
<!-- startNew&#45;&gt;statusNewFailed -->
<g id="edge7" class="edge">
<title>startNew&#45;&gt;statusNewFailed</title>
<path fill="none" stroke="#b02222" d="M461.42,-382.57C468.44,-377.93 474.73,-372.15 479,-365 515.71,-303.54 482.06,-215.77 460.62,-171.9"/>
<polygon fill="#b02222" stroke="#b02222" points="463.37,-170.58 455.74,-163.23 457.12,-173.73 463.37,-170.58"/>
<text text-anchor="middle" x="513.75" y="-286.57" font-family="Lato" font-size="14.00" fill="#b02222">Failed</text>
</g>
<!-- statusNewComplete&#45;&gt;statusNewFailed -->
<g id="edge9" class="edge">
<title>statusNewComplete&#45;&gt;statusNewFailed</title>
<path fill="none" stroke="#b02222" d="M334.95,-272.99C357.02,-247.5 398.46,-199.64 424.01,-170.15"/>
<polygon fill="#b02222" stroke="#b02222" points="427.17,-172.84 431.07,-162.99 421.88,-168.26 427.17,-172.84"/>
<text text-anchor="start" x="412" y="-221.45" font-family="Lato" font-size="14.00" fill="#b02222">Late</text>
<text text-anchor="middle" x="433.75" y="-204.2" font-family="Lato" font-size="14.00" fill="#b02222">Failure</text>
</g>
<!-- start2 -->
<g id="node11" class="node">
<title>start2</title>
<polygon fill="#ffffff" stroke="#bbbbbb" points="858.62,-419 609.38,-419 609.38,-383 858.62,-383 858.62,-419"/>
<text text-anchor="middle" x="734" y="-396.32" font-family="Lato" font-size="14.00">Lifecycyle of a Recurring Contribution</text>
</g>
<!-- statusCrPending -->
<g id="node12" class="node">
<title>statusCrPending</title>
<polygon fill="#fbfbfb" stroke="#0284ea" points="842.88,-312.5 625.12,-312.5 625.12,-270 842.88,-270 842.88,-312.5"/>
<text text-anchor="middle" x="734" y="-295.2" font-family="Lato" font-size="14.00" fill="#0284ea">Pending</text>
<text text-anchor="middle" x="734" y="-277.95" font-family="Lato" font-size="14.00" fill="#0284ea">processor_id = Billing Request ID</text>
</g>
<!-- start2&#45;&gt;statusCrPending -->
<g id="edge10" class="edge">
<title>start2&#45;&gt;statusCrPending</title>
<path fill="none" stroke="#22b022" d="M734,-382.69C734,-366.85 734,-343.03 734,-323.81"/>
<polygon fill="#22b022" stroke="#22b022" points="737.5,-323.83 734,-313.83 730.5,-323.83 737.5,-323.83"/>
<text text-anchor="start" x="734" y="-351.7" font-family="Lato" font-size="14.00" fill="#22b022">User submits Contribution Page form.</text>
<text text-anchor="start" x="734" y="-334.45" font-family="Lato" font-size="14.00" fill="#22b022">Billing Request Flow created</text>
</g>
<!-- statusCrIP -->
<g id="node13" class="node">
<title>statusCrIP</title>
<polygon fill="#fbfbfb" stroke="#0284ea" points="828.25,-165 627.75,-165 627.75,-122.5 828.25,-122.5 828.25,-165"/>
<text text-anchor="middle" x="728" y="-147.7" font-family="Lato" font-size="14.00" fill="#0284ea">In Progress</text>
<text text-anchor="middle" x="728" y="-130.45" font-family="Lato" font-size="14.00" fill="#0284ea">processor_id = subscription ID</text>
</g>
<!-- statusCrPending&#45;&gt;statusCrIP -->
<g id="edge11" class="edge">
<title>statusCrPending&#45;&gt;statusCrIP</title>
<path fill="none" stroke="#22b022" d="M730.68,-269.66C729.89,-263.95 729.16,-257.75 728.75,-252 726.92,-226.5 726.84,-197.49 727.15,-176.08"/>
<polygon fill="#22b022" stroke="#22b022" points="730.67,-176.41 727.36,-166.34 723.67,-176.27 730.67,-176.41"/>
<text text-anchor="start" x="728" y="-221.45" font-family="Lato" font-size="14.00" fill="#22b022">Billing Request Flow</text>
<text text-anchor="start" x="728" y="-204.2" font-family="Lato" font-size="14.00" fill="#22b022">Completed</text>
</g>
<!-- statusCrFailed -->
<g id="node15" class="node">
<title>statusCrFailed</title>
<polygon fill="#fbfbfb" stroke="#0284ea" points="903,-161.75 849,-161.75 849,-125.75 903,-125.75 903,-161.75"/>
<text text-anchor="middle" x="876" y="-139.07" font-family="Lato" font-size="14.00" fill="#0284ea">Failed</text>
</g>
<!-- statusCrPending&#45;&gt;statusCrFailed -->
<g id="edge12" class="edge">
<title>statusCrPending&#45;&gt;statusCrFailed</title>
<path fill="none" stroke="#b02222" d="M831.64,-269.56C839.98,-264.85 847.64,-259.07 854,-252 873.33,-230.5 877.46,-196.68 877.62,-172.78"/>
<polygon fill="#b02222" stroke="#b02222" points="881.11,-172.88 877.43,-162.94 874.11,-173 881.11,-172.88"/>
<text text-anchor="start" x="877" y="-238.7" font-family="Lato" font-size="14.00" fill="#b02222">User</text>
<text text-anchor="start" x="877" y="-221.45" font-family="Lato" font-size="14.00" fill="#b02222">abandons</text>
<text text-anchor="start" x="877" y="-204.2" font-family="Lato" font-size="14.00" fill="#b02222">process,</text>
<text text-anchor="start" x="877" y="-186.95" font-family="Lato" font-size="14.00" fill="#b02222">cron cleans up</text>
</g>
<!-- statusCrCancelled -->
<g id="node14" class="node">
<title>statusCrCancelled</title>
<polygon fill="#fbfbfb" stroke="#0284ea" points="626.38,-52 549.62,-52 549.62,-16 626.38,-16 626.38,-52"/>
<text text-anchor="middle" x="588" y="-29.32" font-family="Lato" font-size="14.00" fill="#0284ea">Cancelled</text>
</g>
<!-- statusCrIP&#45;&gt;statusCrCancelled -->
<g id="edge15" class="edge">
<title>statusCrIP&#45;&gt;statusCrCancelled</title>
<path fill="none" stroke="#b02222" d="M627.36,-124.35C608.87,-118.94 593.49,-112.33 587.5,-104.5 578.6,-92.85 578.26,-76.6 580.36,-62.74"/>
<polygon fill="#b02222" stroke="#b02222" points="583.92,-63.77 582.45,-53.28 577.06,-62.4 583.92,-63.77"/>
<text text-anchor="start" x="587" y="-91.2" font-family="Lato" font-size="14.00" fill="#b02222">Mandate/subscription</text>
<text text-anchor="start" x="587" y="-73.95" font-family="Lato" font-size="14.00" fill="#b02222">cancelled</text>
</g>
<!-- statusCrOverdue -->
<g id="node16" class="node">
<title>statusCrOverdue</title>
<polygon fill="#fbfbfb" stroke="#0284ea" points="898,-52 828,-52 828,-16 898,-16 898,-52"/>
<text text-anchor="middle" x="863" y="-29.32" font-family="Lato" font-size="14.00" fill="#0284ea">Overdue</text>
</g>
<!-- statusCrIP&#45;&gt;statusCrOverdue -->
<g id="edge13" class="edge">
<title>statusCrIP&#45;&gt;statusCrOverdue</title>
<path fill="none" stroke="#b02222" d="M777.53,-122.07C786.54,-117.07 795.47,-111.2 803,-104.5 816.77,-92.25 814.12,-84.09 826,-70 828.89,-66.58 832.08,-63.14 835.34,-59.83"/>
<polygon fill="#b02222" stroke="#b02222" points="837.25,-62.88 841.98,-53.39 832.37,-57.86 837.25,-62.88"/>
<text text-anchor="start" x="826" y="-91.2" font-family="Lato" font-size="14.00" fill="#b02222">Payment</text>
<text text-anchor="start" x="826" y="-73.95" font-family="Lato" font-size="14.00" fill="#b02222">failed</text>
</g>
<!-- statusCrCompleted -->
<g id="node17" class="node">
<title>statusCrCompleted</title>
<polygon fill="#fbfbfb" stroke="#0284ea" points="766.75,-52 683.25,-52 683.25,-16 766.75,-16 766.75,-52"/>
<text text-anchor="middle" x="725" y="-29.32" font-family="Lato" font-size="14.00" fill="#0284ea">Completed</text>
</g>
<!-- statusCrIP&#45;&gt;statusCrCompleted -->
<g id="edge16" class="edge">
<title>statusCrIP&#45;&gt;statusCrCompleted</title>
<path fill="none" stroke="#22b022" d="M727.12,-122.11C726.9,-116.4 726.67,-110.21 726.5,-104.5 726.09,-90.92 725.75,-75.85 725.5,-63.22"/>
<polygon fill="#22b022" stroke="#22b022" points="728.98,-63.36 725.29,-53.43 721.98,-63.49 728.98,-63.36"/>
<text text-anchor="start" x="726" y="-91.2" font-family="Lato" font-size="14.00" fill="#22b022">Subscription</text>
<text text-anchor="start" x="726" y="-73.95" font-family="Lato" font-size="14.00" fill="#22b022"> Finished</text>
</g>
<!-- statusCrOverdue&#45;&gt;statusCrIP -->
<g id="edge14" class="edge">
<title>statusCrOverdue&#45;&gt;statusCrIP</title>
<path fill="none" stroke="#22b022" d="M874.72,-52.42C883.33,-67.61 891.68,-89.51 880,-104.5 878,-107.07 856.22,-113.07 829.75,-119.57"/>
<polygon fill="#22b022" stroke="#22b022" points="829.3,-116.32 820.4,-122.08 830.95,-123.13 829.3,-116.32"/>
<text text-anchor="start" x="885" y="-91.2" font-family="Lato" font-size="14.00" fill="#22b022">Payment</text>
<text text-anchor="start" x="885" y="-73.95" font-family="Lato" font-size="14.00" fill="#22b022">Confirmed</text>
</g>
</g>
</svg>
