[
  "civicrm_msg_template",
  "civicrm_mosaico_template",
  "civicrm_mosaico_msg_template",
  "civicrm_activity",
  "civicrm_address",
  "civicrm_case",
  "civicrm_case_contact",
  "civicrm_case_activity",
  "civicrm_case_contact",
  "civicrm_activity_contact",
  "civicrm_relationship_type",
  "civicrm_contact",
  "civicrm_contribution",
  "civicrm_contribution_recur",
  "civicrm_custom_field",
  "civicrm_custom_group",
  "civicrm_email",
  "civicrm_event",
  "civicrm_membership",
  "civicrm_membership_type",
  "civicrm_membership_status",
  "civicrm_option_group",
  "civicrm_option_value",
  "civicrm_participant",
  "civicrm_phone",
  "civicrm_relationship",
  "civicrm_setting",
  "civicrm_note",
  "civicrm_tag",
  "civicrm_entity_tag"
]
